{
"vNet":"Vnet_Test",
"vNetRG":"USSCNETRGD01",
"subnetName": "TestSubnet4",
"SubnetaddressPrefix": "192.168.4.0/24",
"FirstRoutableIP": "192.168.4.10",
"SecondRoutableIP":"192.168.4.11",
"ThirdRoutableIP": "192.168.4.12"
}				
		