{
    "$schema": "http://schema.management.azure.com/schemas/2015-01-01/deploymentTemplate.json#",
    "contentVersion": "1.0.0.0",
    "parameters": {
        "Engagement": {
            "type": "string",
            "defaultValue": "PhoenixPro"
        },
        "virtualNetworkName": {
            "type": "string",
            "defaultValue": "Vnet_Test"
        },
        "subnetName": {
            "type": "string",
            "defaultValue": "TestSubnet"
        },
        "FirstRoutableIP": {
            "type": "string"
        },
        "ThirdRoutableIP": {
            "type": "string"
        },
        "Enviroment": {
            "type": "string",
            "defaultValue": "si2"
        },
        "vNetRG": {
            "type": "string",
            "defaultValue": "USSCNETRGD01"
        },
        "adminPassword": {
            "type": "securestring",
            "defaultValue": "EyPassword2016!!!"
        },
        "domainAdminPassword": {
            "type": "securestring",
            "defaultValue": "EyPassword2016!!!"
        }
    },
    "variables": {
        "domainAdminUser": "[concat(parameters('Engagement'),'-admin')]",
        "computerName": "[concat(parameters('Engagement'),'-JUMP')]",
        "nestedURI": "[concat('https://sbprepo',parameters('enviroment'),'.blob.core.windows.net/container-rg/')]",
        "dscConfigurationUri": "[variables('nestedURI')]",
        "adminUser": "[concat(parameters('Engagement'),'-admin')]",
        "virtualMachineSize": "Standard_A2_v2",
        "ImagePublisher": "MicrosoftWindowsServer",
        "ImageOffer": "WindowsServer",
        "ImageSKU": "2016-Datacenter",
        "DomainName": "[concat(parameters('Engagement'),'.net')]",
        "domainNetBiosName": "[parameters('Engagement')]",
        "vnetId": "[resourceId( parameters('vNetRG'),'Microsoft.Network/virtualNetworks', parameters('virtualNetworkName'))]",
        "staticSubnetRef": "[concat(variables('vnetId'),'/subnets/',parameters('subnetName'))]"
    },
    "resources": [
        {
            "name": "[concat(variables('ComputerName'),'-nic')]",
            "type": "Microsoft.Network/networkInterfaces",
            "apiVersion": "2016-09-01",
            "location": "[resourceGroup().location]",
            "dependsOn": [],
            "properties": {
                "ipConfigurations": [
                    {
                        "name": "ipconfig1",
                        "properties": {
                            "privateIPAddress": "[parameters('ThirdRoutableIP')]",
                            "privateIPAllocationMethod": "Static",
                            "privateIPAddressVersion": "IPv4",
                            "subnet": {
                                "id": "[variables('staticSubnetRef')]"
                            }
                        }
                    }
                ]
            }
        },
        {
            "name": "[variables('computerName')]",
            "type": "Microsoft.Compute/virtualMachines",
            "apiVersion": "2016-04-30-preview",
            "location": "[resourceGroup().location]",
            "dependsOn": [
                "[concat('Microsoft.Network/networkInterfaces/', variables('ComputerName'),'-nic')]"
            ],
            "properties": {
                "osProfile": {
                    "computerName": "[variables('computerName')]",
                    "adminUsername": "[variables('adminUser')]",
                    "adminPassword": "[parameters('adminPassword')]",
                    "windowsConfiguration": {
                        "provisionVmAgent": "true"
                    }
                },
                "hardwareProfile": {
                    "vmSize": "[variables('virtualMachineSize')]"
                },
                "storageProfile": {
                    "imageReference": {
                        "publisher": "MicrosoftWindowsServer",
                        "offer": "WindowsServer",
                        "sku": "2016-Datacenter",
                        "version": "latest"
                    },
                    "osDisk": {
                        "createOption": "FromImage",
                        "name": "[concat(variables('computerName'),'-osDisk')]",
                        "managedDisk": {
                            "storageAccountType": "Standard_LRS"
                        }
                    },
                    "dataDisks": []
                },
                "networkProfile": {
                    "networkInterfaces": [
                        {
                            "id": "[resourceId('Microsoft.Network/networkInterfaces', concat(variables('ComputerName'),'-nic') ) ]"
                        }
                    ]
                }
            }
        }
		// ,
        // {
        //     "name": "[concat(variables('computerName'),'/ConfigureJumpServer')]",
        //     "type": "Microsoft.Compute/virtualMachines/extensions",
        //     "location": "[ResourceGroup().location]",
        //     "apiVersion": "2017-03-30",
        //     "dependsOn": [
        //         "[concat('Microsoft.Compute/virtualMachines/', variables('computerName'))]"
        //     ],
        //     "properties": {
        //         "publisher": "Microsoft.Powershell",
        //         "type": "DSC",
        //         "typeHandlerVersion": "2.20",
        //         "settings": {
        //             "configuration": {
        //                 "url": "[concat(variables('dscConfigurationUri'),'JumpServer.zip')]",
        //                 "script": "JumpServer.ps1",
        //                 "function": "JumpServer"
        //             },
        //             "configurationArguments": {
        //                 "Dns": "[parameters('FirstRoutableIP')]",
        //                 "DomainName": "[variables('domainName')]",
        //                 "DomainNetBiosName": "[variables('domainNetBiosName')]",
        //                 "LocalAdministratorName": "[variables('adminUser')]"
        //             }
        //         },
        //         "protectedSettings": {
        //             "configurationArguments": {
        //                 "AdminCredentials": {
        //                     "userName": "[variables('domainAdminUser')]",
        //                     "password": "[parameters('domainAdminPassword')]"
        //                 }
        //             }
        //         }
        //     }
        // }
    ],
    "outputs": {
        "adminUser": {
            "type": "string",
            "value": "[variables('adminUser')]"
        }
    }
}